Chapter 1: 度数分布表とヒストグラムで | Rで学ぶ『完全独習 統計学入門』
…
            Rで学ぶ『完全独習 統計学入門』

Chapter 1: 度数分布表とヒストグラムで

　本講で扱うデータはテキストのP16 図表1-1で示されているデータですが、Rで処理しやすいように以下のように一列にまとめてxというデータフレーム型の変数に格納しておきます。

x

## # A tibble: 80 × 1
##    height
##     <int>
##  1    151
##  2    154
##  3    160
##  4    160
##  5    163
##  6    156
##  7    158
##  8    156
##  9    154
## 10    160
## # … with 70 more rows
…
